if exists (select * from dbo.sysobjects where id = object_id(N'[dbo].[PeriodTypes]') and OBJECTPROPERTY(id, N'IsUserTable') = 1)
drop table [dbo].[PeriodTypes]
GO

CREATE TABLE [dbo].[PeriodTypes] (
	[PeriodTypeCD] [tinyint] NOT NULL ,
	[Description] [varchar] (20) COLLATE SQL_Latin1_General_CP1_CI_AS NULL 
) ON [PRIMARY]
GO

ALTER TABLE [dbo].[PeriodTypes] WITH NOCHECK ADD 
	CONSTRAINT [PK_PeriodTypes] PRIMARY KEY  CLUSTERED 
	(
		[PeriodTypeCD]
	)  ON [PRIMARY] 

GO