if exists (select * from dbo.sysobjects where id = object_id(N'[dbo].[ThirdPartyCategory_D]') and OBJECTPROPERTY(id, N'IsUserTable') = 1)
drop table [dbo].[ThirdPartyCategory_D]
GO

CREATE TABLE [dbo].[ThirdPartyCategory_D] (
	[ThirdPartyCategoryID] [int] NOT NULL ,
	[ThirdPartyID] [int] NOT NULL,
	[BookoutCategoryID] [int] NOT NULL,
	[Description] [varchar] (50) COLLATE SQL_Latin1_General_CP1_CI_AS NOT NULL ,
	CONSTRAINT [PK_ThirdPartyCategory_D] PRIMARY KEY  CLUSTERED 
	(
		[ThirdPartyCategoryID]
	)  ON [PRIMARY] 
) ON [PRIMARY]
GO

ALTER TABLE dbo.ThirdPartyCategory_D ADD CONSTRAINT
	FK_ThirdPartyCategory_D_ThirdParty_D FOREIGN KEY
	(
	ThirdPartyID
	) REFERENCES dbo.ThirdParty_D
	(
	ThirdPartyID
	)
GO

ALTER TABLE dbo.ThirdPartyCategory_D ADD CONSTRAINT
	FK_ThirdPartyCategory_D_BookoutCategory_D FOREIGN KEY
	(
	BookoutCategoryID
	) REFERENCES dbo.BookoutCategory_D
	(
	BookoutCategoryID
	)
GO
