if exists (select * from dbo.sysobjects where id = object_id(N'[dbo].[Periods]') and OBJECTPROPERTY(id, N'IsUserTable') = 1)
drop table [dbo].[Periods]
GO

CREATE TABLE [dbo].[Periods] (
	[PeriodID] [tinyint] IDENTITY (1, 1) NOT NULL ,
	[Description] [varchar] (50) COLLATE SQL_Latin1_General_CP1_CI_AS NULL ,
	[PeriodTypeCD] [tinyint] NULL ,
	[DurationCount] [int] NULL ,
	[Rank] [tinyint] NOT NULL ,
	CONSTRAINT [PK_Periods] PRIMARY KEY  CLUSTERED 
	(
		[PeriodID]
	)  ON [PRIMARY] 
) ON [PRIMARY]
GO

ALTER TABLE [dbo].[Periods] ADD 
	CONSTRAINT [FK_Periods_PeriodTypes] FOREIGN KEY 
	(
		[PeriodTypeCD]
	) REFERENCES [dbo].[PeriodTypes] (
		[PeriodTypeCD]
	)
GO
