
if exists (select * from dbo.sysobjects where id = object_id(N'[dbo].[WarehouseTableGroups]') and OBJECTPROPERTY(id, N'IsUserTable') = 1)
drop table [dbo].[WarehouseTableGroups]
GO

CREATE TABLE [dbo].[WarehouseTableGroups] (
	[WarehouseTableGroupID] [tinyint] NOT NULL ,
	[Name] [varchar] (128) COLLATE SQL_Latin1_General_CP1_CI_AS NOT NULL, 
	[Description] [varchar] (255) COLLATE SQL_Latin1_General_CP1_CI_AS NULL 
) ON [DATA]
GO

ALTER TABLE dbo.WarehouseTableGroups ADD CONSTRAINT
	PK_WarehouseTableGroups PRIMARY KEY CLUSTERED 
	(
	WarehouseTableGroupID
	) ON DATA

GO