if exists (select * from dbo.sysobjects where id = object_id(N'[dbo].[Sales_A1#0]') and OBJECTPROPERTY(id, N'IsUserTable') = 1)
drop table [dbo].[Sales_A1#0]
GO

CREATE TABLE [dbo].[Sales_A1#0] (
	[BusinessUnitID] [int] NOT NULL ,
	[PeriodID] [tinyint] NOT NULL ,
	[GroupingDescriptionID] [int] NOT NULL ,
	[InventoryTypeID] [tinyint] NOT NULL ,
	[SaleTypeID] [tinyint] NOT NULL ,
	[Units] [decimal](15, 2) NULL ,
	[AvgGrossProfit] [decimal](15, 2) NULL ,
	[AvgDaysToSale] [decimal](15, 2) NULL ,
	[AvgVehicleMileage] [decimal](15, 2) NULL ,
	[AvgBackEndGrossProfit] [decimal](15, 2) NULL ,
	[TotalSalesPrice] [decimal](15, 2) NULL ,
	[TotalGrossMargin] [decimal](15, 2) NULL ,
	[TotalBackEndGrossProfit] [decimal](15, 2) NULL
) ON [PRIMARY]
GO

