if exists (select * from dbo.sysobjects where id = object_id(N'[dbo].[ThirdParty_D]') and OBJECTPROPERTY(id, N'IsUserTable') = 1)
drop table [dbo].[ThirdParty_D]
GO

CREATE TABLE [dbo].[ThirdParty_D] (
	[ThirdPartyID] [int] NOT NULL ,
	[Description] [varchar] (50) COLLATE SQL_Latin1_General_CP1_CI_AS NOT NULL ,
	CONSTRAINT [PK_ThirdParty_D] PRIMARY KEY  CLUSTERED 
	(
		[ThirdPartyID]
	)  ON [PRIMARY] 
) ON [PRIMARY]
GO


