if exists (select * from dbo.sysobjects where id = object_id(N'[InventorySales_A4#0]') and OBJECTPROPERTY(id, N'IsUserTable') = 1)
drop table [InventorySales_A4#0]
GO

CREATE TABLE [InventorySales_A4#0] (
	BusinessUnitID			INT NOT NULL,
	VehicleSegmentID		TINYINT NOT NULL,
	InventoryTypeID			TINYINT NOT NULL,
	SaleTypeID			TINYINT NOT NULL,
	TotalFrontEndGross		DECIMAL(15,2) NULL,
	UnitsSold 			INT NULL,
	UnitsInStock 			INT NULL,
	DaysInPeriod			SMALLINT NULL,
	SalesRate			DECIMAL(9,5) NULL,
	DaysSupply			DECIMAL(9,2) NULL
) ON [DATA]
GO


