if exists (select * from dbo.sysobjects where id = object_id(N'[dbo].[InventoryBucketGroup_D]') and OBJECTPROPERTY(id, N'IsUserTable') = 1)
drop table [dbo].[InventoryBucketGroup_D]
GO

CREATE TABLE [dbo].[InventoryBucketGroup_D] (
	[InventoryBucketGroupID] [tinyint] NOT NULL ,
	[Description] [varchar] (100) COLLATE SQL_Latin1_General_CP1_CI_AS NOT NULL ,
	[InventoryTypeID] [tinyint] NOT NULL CONSTRAINT [DF__Inventory__Acqui__2FCF1A8A] DEFAULT (0),
	CONSTRAINT [PK_InventoryBucketGroup_D] PRIMARY KEY  CLUSTERED 
	(
		[InventoryBucketGroupID]
	)  ON [PRIMARY] 
) ON [PRIMARY]
GO


