if exists (select * from dbo.sysobjects where id = object_id(N'[dbo].[Dimensions]') and OBJECTPROPERTY(id, N'IsUserTable') = 1)
drop table [dbo].[Dimensions]
GO

CREATE TABLE [dbo].[Dimensions](
	[DimensionID] [tinyint] NOT NULL,
	[TableName] [varchar](128) NOT NULL,
	[DescriptorColumnName] [varchar](128) NULL,
	[HasIdentityColumn] [bit] NOT NULL CONSTRAINT [DF_Dimensions_HasIdentityColumn]  DEFAULT (1),
	[Description] [varchar](100) NULL,
	[Loader] [varchar](128) NULL,
	[LoaderTypeID] [tinyint] NULL DEFAULT (3),
	[Type] [tinyint] NULL CONSTRAINT [DF_Dimensions__Type]  DEFAULT ((2)),
 CONSTRAINT [PK_Dimensions] PRIMARY KEY CLUSTERED 
(
	[DimensionID] ASC
)WITH (PAD_INDEX  = OFF, STATISTICS_NORECOMPUTE  = OFF, IGNORE_DUP_KEY = OFF, ALLOW_ROW_LOCKS  = ON, ALLOW_PAGE_LOCKS  = ON) ON [PRIMARY]
) ON [PRIMARY]

GO
