
CREATE TABLE dbo.VehicleCategory (
	VehicleCategoryID INT IDENTITY (1,1) NOT NULL,
	[Name] VARCHAR(20),
	CONSTRAINT PK_VehicleCategory  PRIMARY KEY NONCLUSTERED (
		VehicleCategoryID
	)
)
GO
