
if exists (select * from dbo.sysobjects where id = object_id(N'[dbo].[UserContext]') and OBJECTPROPERTY(id, N'IsUserTable') = 1)
DROP TABLE dbo.UserContext
GO

CREATE TABLE dbo.UserContext (
	UserContextID  INT IDENTITY(1,1) NOT NULL,
	RunDate        SMALLDATETIME NOT NULL
	CONSTRAINT PK_UserContext PRIMARY KEY NONCLUSTERED (
		UserContextID
	)
)
GO

INSERT INTO dbo.UserContext (RunDate) VALUES (dbo.ToDate(GETDATE()))
GO

INSERT INTO dbo.UserContext (RunDate) VALUES (DATEADD(WW,1,dbo.ToDate(GETDATE())))
GO
