
if exists (select * from dbo.sysobjects where id = object_id(N'[dbo].[Inventory_A4#0]') and OBJECTPROPERTY(id, N'IsUserTable') = 1)
DROP TABLE dbo.Inventory_A4#0
GO

if exists (select * from dbo.sysobjects where id = object_id(N'[dbo].[Inventory_A4#1]') and OBJECTPROPERTY(id, N'IsUserTable') = 1)
DROP TABLE dbo.Inventory_A4#1
GO

CREATE TABLE dbo.Inventory_A4#0(
	BusinessUnitID                             INT NOT NULL,
	GroupingDescriptionID                      INT NOT NULL,
	ModelYear                                  INT NULL,
	StockedUnitsModelYear                      INT NOT NULL,
	StockedUnitsModel                          INT NOT NULL,
	StockedUnitsModelYearOverUnitCostThreshold INT NOT NULL,
	StockedUnitsModelOverUnitCostThreshold     INT NOT NULL,
	OptimalUnitsModelYear                      INT NULL,
	OptimalUnitsModel                          INT NULL,
	CIACategoryID                              INT NULL
)
GO

CREATE INDEX IDX_Inventory_A4#0 ON Inventory_A4#0 (
	BusinessUnitID,
	GroupingDescriptionID,
	ModelYear
)
GO

CREATE TABLE dbo.Inventory_A4#1(
	BusinessUnitID                             INT NOT NULL,
	GroupingDescriptionID                      INT NOT NULL,
	ModelYear                                  INT NULL,
	StockedUnitsModelYear                      INT NOT NULL,
	StockedUnitsModel                          INT NOT NULL,
	StockedUnitsModelYearOverUnitCostThreshold INT NOT NULL,
	StockedUnitsModelOverUnitCostThreshold     INT NOT NULL,
	OptimalUnitsModelYear                      INT NULL,
	OptimalUnitsModel                          INT NULL,
	CIACategoryID                              INT NULL
)
GO

CREATE INDEX IDX_Inventory_A4#1 ON Inventory_A4#1 (
	BusinessUnitID,
	GroupingDescriptionID,
	ModelYear
)
GO

if exists (select * from dbo.sysobjects where id = object_id(N'[dbo].[Inventory_A4]') and OBJECTPROPERTY(id, N'IsView') = 1)
drop view [dbo].[Inventory_A4]
GO

CREATE VIEW dbo.Inventory_A4 AS SELECT * FROM Inventory_A4#1
GO

INSERT INTO dbo.ViewStatus (ViewName,TableIndex) VALUES ('Inventory_A4', 1)
GO

INSERT INTO [dbo].AggregateTables(
	[AggregateTableID],
	[TableName],
	[Description],
	[IsBuffered],
	[HasPrimaryKey],
	[Loader],
	[LoaderTypeID]
)
VALUES(
	4,
	'Inventory_A4',
	'Aggregated snapshot of stocked-, optimal- and optimal-stocked-inventory',
	1,
	0,
	'GetInventory_V4',
	3
)
GO
