
if exists (select * from dbo.sysobjects where id = object_id(N'[dbo].[Inventory_A7#0]') and OBJECTPROPERTY(id, N'IsUserTable') = 1)
DROP TABLE dbo.Inventory_A7#0
GO

if exists (select * from dbo.sysobjects where id = object_id(N'[dbo].[Inventory_A7#1]') and OBJECTPROPERTY(id, N'IsUserTable') = 1)
DROP TABLE dbo.Inventory_A7#1
GO

CREATE TABLE dbo.Inventory_A7#0(
	BusinessUnitID        INT NOT NULL,
	GroupingDescriptionID INT NOT NULL,
	InventoryID           INT NOT NULL,
	ModelYear             INT NOT NULL,
	Mileage               INT NOT NULL,
	Active                TINYINT NOT NULL,
	DaysToSale            TINYINT NULL,
	TotalGross            INT NULL,
	CONSTRAINT PK_Inventory_A7#0 PRIMARY KEY NONCLUSTERED (
		InventoryID
	),
	CONSTRAINT CK_Inventory_A7#0_Active CHECK (
		Active = 0
	)
)
GO

CREATE TABLE dbo.Inventory_A7#1(
	BusinessUnitID        INT NOT NULL,
	GroupingDescriptionID INT NOT NULL,
	InventoryID           INT NOT NULL,
	ModelYear             INT NOT NULL,
	Mileage               INT NOT NULL,
	Active                TINYINT NOT NULL,
	DaysToSale            TINYINT NULL,
	TotalGross            INT NULL,
	CONSTRAINT PK_Inventory_A7#1 PRIMARY KEY NONCLUSTERED (
		InventoryID
	),
	CONSTRAINT CK_Inventory_A7#1_Active CHECK (
		Active = 0
	)
)
GO

if exists (select * from dbo.sysobjects where id = object_id(N'[dbo].[Inventory_A7]') and OBJECTPROPERTY(id, N'IsView') = 1)
drop view [dbo].[Inventory_A7]
GO

CREATE VIEW dbo.Inventory_A7 AS SELECT * FROM Inventory_A7#1
GO

INSERT INTO dbo.ViewStatus (ViewName,TableIndex) VALUES ('Inventory_A7', 1)
GO

INSERT INTO [dbo].AggregateTables(
	[AggregateTableID],
	[TableName],
	[Description],
	[IsBuffered],
	[HasPrimaryKey],
	[Loader],
	[LoaderTypeID]
)
VALUES(
	13,
	'Inventory_A7',
	'Inactive inventory sold within the last 100 days',
	1,
	0,
	'GetInventory_V7',
	3
)
GO

CREATE VIEW dbo.GetInventory AS SELECT * FROM Inventory_A6#1 UNION ALL SELECT * FROM Inventory_A7#1
GO
