﻿
SELECT  M.INTERVAL ,
        M.INTERVAL_MIN ,
        M.INTERVAL_MAX ,
        M.CPO_MILEAGE_PERCENT
FROM    {0}.TMVU_CPO_MILEAGE M
JOIN    {0}.TMVU_VEHICLE V ON V.MAKE = M.MAKE
WHERE   V.ED_STYLE_ID = @StyleID
AND     M.AGE = COALESCE(NULLIF(YEAR(GETDATE()) - V.Year, 0), 1)
{1}     V.DataLoadID = @DataLoadID
{1}     M.DataLoadID = @DataLoadID
