if exists (select * from dbo.sysobjects where id = object_id(N'[dbo].[PING]') and OBJECTPROPERTY(id, N'IsUserTable') = 1)
drop table [dbo].[PING]
GO

CREATE TABLE [dbo].[PING] (
	[MakeModelGroupingID] [int] NULL ,
	[Make] [nvarchar] (255) COLLATE SQL_Latin1_General_CP1_CI_AS NULL ,
	[Model] [nvarchar] (255) COLLATE SQL_Latin1_General_CP1_CI_AS NULL ,
	[Matches] [int] NULL ,
	[cars] [nvarchar] (255) COLLATE SQL_Latin1_General_CP1_CI_AS NULL ,
	[carsdirect] [nvarchar] (255) COLLATE SQL_Latin1_General_CP1_CI_AS NULL ,
	[autotrader] [nvarchar] (255) COLLATE SQL_Latin1_General_CP1_CI_AS NULL ,
	[status] [int] NULL 
) ON [PRIMARY]
GO


