if exists (select * from dbo.sysobjects where id = object_id(N'[dbo].[PeriodTypes]') and OBJECTPROPERTY(id, N'IsUserTable') = 1)
drop table [dbo].[PeriodTypes]
GO

CREATE TABLE [dbo].[PeriodTypes] (
	[PeriodTypeID] [tinyint] NOT NULL ,
	[Description] [varchar] (20) COLLATE SQL_Latin1_General_CP1_CI_AS NULL ,
	CONSTRAINT [PK_PeriodTypes] PRIMARY KEY  CLUSTERED 
	(
		[PeriodTypeID]
	)  ON [PRIMARY] 
) ON [PRIMARY]
GO

GRANT  SELECT  ON [dbo].[PeriodTypes]  TO [asc_admin]
GO


