if exists (select * from dbo.sysobjects where id = object_id(N'[dbo].[Periods]') and OBJECTPROPERTY(id, N'IsUserTable') = 1)
drop table [dbo].[Periods]
GO

CREATE TABLE [dbo].[Periods] (
	[PeriodID] [tinyint] NOT NULL ,
	[Description] [varchar] (50) COLLATE SQL_Latin1_General_CP1_CI_AS NULL ,
	[PeriodTypeID] [tinyint] NOT NULL ,
	[DurationCount] [int] NOT NULL CONSTRAINT [DF__Periods__Duratio__32E0915F] DEFAULT (0),
	CONSTRAINT [PK_Periods] PRIMARY KEY  CLUSTERED 
	(
		[PeriodID]
	)  ON [PRIMARY] ,
	CONSTRAINT [FK_Periods_PeriodTypes] FOREIGN KEY 
	(
		[PeriodTypeID]
	) REFERENCES [dbo].[PeriodTypes] (
		[PeriodTypeID]
	)
) ON [PRIMARY]
GO

GRANT  SELECT  ON [dbo].[Periods]  TO [asc_admin]
GO


