if exists (select * from dbo.sysobjects where id = object_id(N'[KBB].[RegionBasePrice]') and OBJECTPROPERTY(id, N'IsUserTable') = 1)
drop table [KBB].[RegionBasePrice]
GO

CREATE TABLE [KBB].[RegionBasePrice] (
	[VehicleId] [int] NOT NULL ,
	[VehicleTypeRegionId] [int] NOT NULL ,
	[PriceTypeId] [int] NOT NULL ,
	[Price] [decimal](10, 2) NULL ,
	CONSTRAINT [PK_RegionBasePrice] PRIMARY KEY  CLUSTERED 
	(
		[VehicleId],
		[VehicleTypeRegionId],
		[PriceTypeId]
	)  ON [PRIMARY] ,
	CONSTRAINT [FK_RegionBasePrice__PriceType] FOREIGN KEY 
	(
		[PriceTypeId]
	) REFERENCES [KBB].[PriceType] (
		[PriceTypeId]
	),
	CONSTRAINT [FK_RegionBasePrice__Vehicle] FOREIGN KEY 
	(
		[VehicleId]
	) REFERENCES [KBB].[Vehicle] (
		[VehicleId]
	),
	CONSTRAINT [FK_RegionBasePrice__VehicleRegion] FOREIGN KEY 
	(
		[VehicleTypeRegionId]
	) REFERENCES [KBB].[VehicleRegion] (
		[VehicleTypeRegionId]
	)
) ON [PRIMARY]
GO


