if exists (select * from dbo.sysobjects where id = object_id(N'[dbo].[AuctionLoadLog]') and OBJECTPROPERTY(id, N'IsUserTable') = 1)
drop table [dbo].[AuctionLoadLog]
GO

CREATE TABLE [dbo].[AuctionLoadLog] (
	[LoadedAt] [datetime] NOT NULL ,
	[FileName] [varchar] (100) COLLATE SQL_Latin1_General_CP1_CI_AS NOT NULL ,
	[DataRows] [int] NOT NULL ,
	[ValidRows] [int] NOT NULL 
) ON [PRIMARY]
GO


