IF  EXISTS (SELECT * FROM sys.objects WHERE object_id = OBJECT_ID(N'[KBB].[ValueRange]') AND type in (N'U'))
DROP TABLE [KBB].[ValueRange]
GO
SET ANSI_NULLS ON
GO
SET QUOTED_IDENTIFIER ON
GO
IF NOT EXISTS (SELECT * FROM sys.objects WHERE object_id = OBJECT_ID(N'[KBB].[ValueRange]') AND type in (N'U'))
BEGIN
CREATE TABLE [KBB].[ValueRange](
	[DataloadID] [int] NOT NULL,
	[ValueRangeId] [int] NOT NULL,
	[YearId] [int] NULL,
	[VehicleTypeId] [int] NOT NULL,
	[ValueMin] [int] NULL,
	[ValueMax] [int] NULL,
 CONSTRAINT [PK_ValueRange] PRIMARY KEY CLUSTERED 
(
	[DataloadID] ASC,
	[ValueRangeId] ASC
)WITH (PAD_INDEX  = OFF, STATISTICS_NORECOMPUTE  = OFF, IGNORE_DUP_KEY = OFF, ALLOW_ROW_LOCKS  = ON, ALLOW_PAGE_LOCKS  = ON) ON [PSC_DataloadID]([DataloadID])
) ON [PSC_DataloadID]([DataloadID])
END
GO
