IF  EXISTS (SELECT * FROM sys.objects WHERE object_id = OBJECT_ID(N'[KBB].[DataVersion]') AND type in (N'U'))
DROP TABLE [KBB].[DataVersion]
GO
SET ANSI_NULLS ON
GO
SET QUOTED_IDENTIFIER ON
GO
SET ANSI_PADDING ON
GO
IF NOT EXISTS (SELECT * FROM sys.objects WHERE object_id = OBJECT_ID(N'[KBB].[DataVersion]') AND type in (N'U'))
BEGIN
CREATE TABLE [KBB].[DataVersion](
	[DataloadID] [int] NOT NULL,
	[DataVersionId] [int] NOT NULL,
	[ReleaseVersion] [varchar](25) NULL,
	[SchemaVersion] [varchar](25) NULL,
 CONSTRAINT [PK_StagingDataVersion] PRIMARY KEY CLUSTERED 
(
	[DataloadID] ASC,
	[DataVersionId] ASC
)WITH (PAD_INDEX  = OFF, STATISTICS_NORECOMPUTE  = OFF, IGNORE_DUP_KEY = OFF, ALLOW_ROW_LOCKS  = ON, ALLOW_PAGE_LOCKS  = ON) ON [PSC_DataloadID]([DataloadID])
) ON [PSC_DataloadID]([DataloadID])
END
GO
SET ANSI_PADDING OFF
GO
