IF  EXISTS (SELECT * FROM sys.objects WHERE object_id = OBJECT_ID(N'[KBB].[MakeAbbreviation]') AND type in (N'U'))
DROP TABLE [KBB].[MakeAbbreviation]
GO
SET ANSI_NULLS ON
GO
SET QUOTED_IDENTIFIER ON
GO
SET ANSI_PADDING ON
GO
IF NOT EXISTS (SELECT * FROM sys.objects WHERE object_id = OBJECT_ID(N'[KBB].[MakeAbbreviation]') AND type in (N'U'))
BEGIN
CREATE TABLE [KBB].[MakeAbbreviation] (
	[MakePICKCodeId] [int] NULL ,
	[MakeId] [int] NULL ,
	[PICKCode] [nvarchar] (2) COLLATE SQL_Latin1_General_CP1_CI_AS NULL ,
	[DisplayName] [nvarchar] (50) COLLATE SQL_Latin1_General_CP1_CI_AS NULL 
) ON [PRIMARY]
END
GO

