IF  EXISTS (SELECT * FROM sys.objects WHERE object_id = OBJECT_ID(N'[KBB].[Year]') AND type in (N'U'))
DROP TABLE [KBB].[Year]
GO
SET ANSI_NULLS ON
GO
SET QUOTED_IDENTIFIER ON
GO
IF NOT EXISTS (SELECT * FROM sys.objects WHERE object_id = OBJECT_ID(N'[KBB].[Year]') AND type in (N'U'))
BEGIN
CREATE TABLE [KBB].[Year](
	[DataloadID] [int] NOT NULL,
	[YearId] [int] NOT NULL,
	[DisplayName] [varchar](25) NULL,
	[VINCode] [char](1) NULL,
	[MileageZeroPoint] [int] NULL,
	[MaximumDeductionPercentage] [decimal](2, 1) NULL,
 CONSTRAINT [PK_Year] PRIMARY KEY CLUSTERED 
(
	[DataloadID] ASC,
	[YearId] ASC
)WITH (PAD_INDEX  = OFF, STATISTICS_NORECOMPUTE  = OFF, IGNORE_DUP_KEY = OFF, ALLOW_ROW_LOCKS  = ON, ALLOW_PAGE_LOCKS  = ON) ON [PSC_DataloadID]([DataloadID])
) ON [PSC_DataloadID]([DataloadID])
END
GO
