
INSERT INTO Customization.Customization_Package
        ( CustomizationID ,
          MementoID ,
          AuditRowID
        )
VALUES  ( @CustomizationID,
          @MementoID,
          @AuditRowID
        )
