if exists (select * from dbo.sysobjects where id = object_id(N'[dbo].[StagingVinDecode]') and OBJECTPROPERTY(id, N'IsUserTable') = 1)
drop table [dbo].[StagingVinDecode]
GO

CREATE TABLE [dbo].[StagingVinDecode] (
	[StagingVehicleID] [int] NOT NULL ,
	[VIN] [char] (17) COLLATE SQL_Latin1_General_CP1_CI_AS NULL ,
	[Series] [varchar] (50) COLLATE SQL_Latin1_General_CP1_CI_AS NULL ,
	[VehicleTrim] [varchar] (50) COLLATE SQL_Latin1_General_CP1_CI_AS NULL ,
	CONSTRAINT [PK_StagingVinDecode] PRIMARY KEY  NONCLUSTERED 
	(
		[StagingVehicleID]
	)  ON [DATA] ,
	CONSTRAINT [FK_StagingVinDecode__StagingVehicle] FOREIGN KEY 
	(
		[StagingVehicleID]
	) REFERENCES [dbo].[StagingVehicle] (
		[StagingVehicleID]
	)
) ON [DATA]
GO


