if exists (select * from dbo.sysobjects where id = object_id(N'[dbo].[StagingVehicle]') and OBJECTPROPERTY(id, N'IsUserTable') = 1)
drop table [dbo].[StagingVehicle]
GO

CREATE TABLE [dbo].[StagingVehicle] (
	[StagingVehicleID] [int] IDENTITY (1, 1) NOT NULL ,
	[DatafeedID] [smallint] NOT NULL ,
	[VehicleID] [int] NULL ,
	[VIN] [char] (17) COLLATE SQL_Latin1_General_CP1_CI_AS NULL ,
	[Year] [char] (4) COLLATE SQL_Latin1_General_CP1_CI_AS NULL ,
	[Make] [varchar] (50) COLLATE SQL_Latin1_General_CP1_CI_AS NULL ,
	[Model] [varchar] (50) COLLATE SQL_Latin1_General_CP1_CI_AS NULL ,
	[Color] [varchar] (50) COLLATE SQL_Latin1_General_CP1_CI_AS NULL ,
	[Series] [varchar] (50) COLLATE SQL_Latin1_General_CP1_CI_AS NULL ,
	[BodyStyle] [varchar] (50) COLLATE SQL_Latin1_General_CP1_CI_AS NULL ,
	[Mileage] [int] NULL ,
	[Engine] [varchar] (100) COLLATE SQL_Latin1_General_CP1_CI_AS NULL ,
	[DriveTrain] [varchar] (100) COLLATE SQL_Latin1_General_CP1_CI_AS NULL ,
	[Transmission] [varchar] (100) COLLATE SQL_Latin1_General_CP1_CI_AS NULL ,
	[DetailURL] [varchar] (250) COLLATE SQL_Latin1_General_CP1_CI_AS NULL ,
	[ImageURL] [varchar] (250) COLLATE SQL_Latin1_General_CP1_CI_AS NULL ,
	[Notes] [varchar] (100) COLLATE SQL_Latin1_General_CP1_CI_AS NULL ,
	[CurrentBid] [int] NULL ,
	[BuyPrice] [int] NULL ,
	[AuctionEnds] [varchar] (50) COLLATE SQL_Latin1_General_CP1_CI_AS NULL ,
	[SellerID] [int] NULL ,
	[SellerName] [varchar] (100) COLLATE SQL_Latin1_General_CP1_CI_AS NULL ,
	[Location] [varchar] (50) COLLATE SQL_Latin1_General_CP1_CI_AS NULL ,
	[ZipCode] [char] (5) COLLATE SQL_Latin1_General_CP1_CI_AS NULL ,
	CONSTRAINT [PK_StagingVehicle] PRIMARY KEY  CLUSTERED 
	(
		[StagingVehicleID]
	)  ON [DATA] ,
	CONSTRAINT [FK_StagingVehicle__Datafeed] FOREIGN KEY 
	(
		[DatafeedID]
	) REFERENCES [dbo].[Datafeed] (
		[DatafeedID]
	)
) ON [DATA]
GO


