if exists (select * from dbo.sysobjects where id = object_id(N'[dbo].[Market_Summary]') and OBJECTPROPERTY(id, N'IsUserTable') = 1)
drop table [dbo].[Market_Summary]
GO

CREATE TABLE [dbo].[Market_Summary] (
	[DealerNumber] [int] NOT NULL ,
	[ReportDT] [smalldatetime] NOT NULL ,
	[Zip] [varchar] (5) COLLATE SQL_Latin1_General_CP1_CI_AS NOT NULL ,
	[YR] [int] NOT NULL ,
	[MMGID] [int] NOT NULL ,
	[SegmentID] [tinyint] NOT NULL ,
	[SubSegmentID] [tinyint] NOT NULL ,
	[Cnt] [int] NOT NULL ,
	CONSTRAINT [PK_Market_Summary] PRIMARY KEY  CLUSTERED 
	(
		[DealerNumber],
		[ReportDT],
		[Zip],
		[YR],
		[MMGID],
		[SegmentID],
		[SubSegmentID]
	)  
)
GO


CREATE INDEX IX_Market_Summary_DealerNumber ON Market_Summary(DealerNumber)
GO
