if exists (select * from dbo.sysobjects where id = object_id(N'[dbo].[mvw_msa_zip_xref]') and OBJECTPROPERTY(id, N'IsUserTable') = 1)
drop table [dbo].[mvw_msa_zip_xref]
GO

CREATE TABLE [dbo].[mvw_msa_zip_xref] (
	[MSA] [int] NOT NULL ,
	[ZIP] [char] (5) COLLATE SQL_Latin1_General_CP1_CI_AS NOT NULL ,
	CONSTRAINT [PK_mvw_msa_zip_xref] PRIMARY KEY  CLUSTERED 
	(
		[MSA],
		[ZIP]
	)  
)
GO

