if exists (select * from dbo.sysobjects where id = object_id(N'[dbo].[Datafeeds]') and OBJECTPROPERTY(id, N'IsUserTable') = 1)
drop table [dbo].[Datafeeds]
GO

CREATE TABLE [dbo].[Datafeeds] (
	[FileID] [int] IDENTITY (15, 1) NOT NULL ,
	[FileName] [varchar] (100) COLLATE SQL_Latin1_General_CP1_CI_AS NOT NULL ,
	[Start_Date_ID] [int] NOT NULL CONSTRAINT [DF_Datafeeds_Start_Date_ID] DEFAULT (0),
	[End_Date_ID] [int] NOT NULL CONSTRAINT [DF_Datafeeds_End_Date_ID] DEFAULT (0),
	[Geo_ID] [int] NOT NULL CONSTRAINT [DF_Datafeeds_Geo_ID] DEFAULT (0),
	[File_Type_CD] [tinyint] NOT NULL CONSTRAINT [DF_Datafeeds_File_Type_CD] DEFAULT (1),
	[Status_CD] [tinyint] NOT NULL CONSTRAINT [DF_Datafeeds_Status_CD] DEFAULT (0),
	[Source_CD] [tinyint] NOT NULL CONSTRAINT [DF_Datafeeds_Source_CD] DEFAULT (1),
	[TimeStamp] [datetime] NOT NULL CONSTRAINT [DF_Datafeeds_TimeStamp] DEFAULT (getdate()),
	CONSTRAINT [PK_Datafeeds] PRIMARY KEY  CLUSTERED 
	(
		[FileID]
	)  
)
GO


