2G2WR544751155555
1FTNW21P44EB55555
3B7HF13Z61M555555
1D4GP24R66B655555
1G1ND52FX5M255555
1D4GP24R96B655555
4S3BH686447655555
1GHDV03E32D255555
1D7HW58N26S755555
1D4GP45R05B155555
1HGEM22915L055555
JM1BJ245831255555
1D4GP24R95B355555
WBANA735X4B855555
1GNDT13S852255555
3B7HF13Z81G255555
1GNDX03E71D255555
5N1BV28U84N355555
1GCCS145X28155555
3FAHP07106R255555
1J4GW48SX3C555555
2C4GP54LX2R755555
1FMZU77E71UB55555
1J4GW48S13C555555
1GCHK23285F955555
2B4GP34332R655555
1D4GP45R66B755555
2C8GP64L93R155555
1J8HG48K76C155555
3C3AY75S45T255555
3FAFP07Z76R155555
2D4GP44L46R855555
3A8FY58B26T255555
JTLKT324650155555
1B7GG22N91S155555
2C3JA53G85H155555
3A8FY68B96T355555
5GRGN23U74H155555
JHMES96684S055555
WBABF8335XEH55555
3A4FY48B16T255555
3A4FY58B96T355555
3A8FY78G06T255555
2C3AK63H15H555555
1A4GP45R66B755555
1B3AL66R26N155555
1D4GP24R96B555555
1B3EL46X36N155555
1D7HU18D84S655555
1B3ES26C84D555555
1D4GP24R26B655555
1J4FA44S66P755555
3A8FY68B26T355555
2A4GP54L56R755555
3C3JY55E56T355555
3A8FY68B86T355555
1J4FA44S96P755555
1B3EL76R05N555555
3C3JY55E36T355555
2C3KA53GX6H355555
1D4GP24R36B655555
WVWPD63B54P155555
1C3EL56R96N255555
1D4GP45R26B755555
1B4GP25391B255555
1D4GP24R36B755555
1D7HW52N76S755555
1D7KS28D76J155555
1D8HB58236F155555
2B3KK53H17H655555
1D4GP25R46B755555
1GNDX03E01D355555
1D4GP24R86B655555
1D4GP25R66B755555
1D4GP24R16B755555
1B3HB48B67D555555
2B3KA53H86H355555
1C3EL56R16N255555
2B3LA53H66H455555
1D4GP25R26B755555
2B3LA53H46H255555
2C3LA73W06H155555
1J4GW48S73C555555
2C3KA53G36H355555
1HGEM21941L155555
1J8HR68216C155555
1J4HR48N46C255555
1J8HG58N56C155555
1B7GG22X51S255555
1D4GP24R95B155555
2G1WX12K8Y9355555
1C3AL56RX6N155555
1FMZU77E92UA55555
2C8GF68415R655555
4C3AG52H95E055555
1D4GP45R46B755555
1C3EL56R06N255555
1C3EL56RX6N255555
1J4GL48KX6W255555
1J8HG58236C155555
2C3KA63H96H555555
2C3KA63HX6H555555
3A8FY688X6T255555
2C3LA63HX6H355555
4A4MN31S74E055555
2A4GP44RX6R855555
2A4GP44R66R855555
3A4FY58B16T255555
1J4HR58N16C155555
1G1AP14P367755555
3C8FY78G73T555555
1G2ZF55B664255555
1G1AL12F757655555
1C3EL56R36N255555
2A4GM68436R755555
2G1WM15K069155555
1D7HW48J06S555555
2D4GP44L75R455555
1D4GP25R16B555555
1J4GW48S64C255555
2C3KA43R56H455555
3A4FY58B06T255555
1J4FA39SX4P755555
1D4HD48N56F155555
2A4GF68466R855555
1D4GP24R46B655555
2A4GM68426R855555
2B3KA43G06H355555
1D4GP24R26B755555
1D4GP24R76B555555
2C3KA63H36H555555
1B3HB48B67D155555
1FAFP53U67A155555
1J8HG48K96C355555
1D4HB48D24F155555
1J4GW58NX4C155555
2C4GM48L95R555555
1D4HS48N13F555555
2C3LA63H76H255555
3GNDA13D66S655555
3GNDA13D06S629222
1D7HU182X6S555555